{
    "href": "https://api.spotify.com/v1/me/tracks?offset=0&limit=20",
    "items": [
        {
            "added_at": "2022-03-29T04:17:35Z",
            "track": {
                "album": {
                    "album_type": "album",
                    "artists": [
                        {
                            "external_urls": {
                                "spotify": "https://open.spotify.com/artist/1uNFoZAHBGtllmzznpCI3s"
                            },
                            "href": "https://api.spotify.com/v1/artists/1uNFoZAHBGtllmzznpCI3s",
                            "id": "1uNFoZAHBGtllmzznpCI3s",
                            "name": "Justin Bieber",
                            "type": "artist",
                            "uri": "spotify:artist:1uNFoZAHBGtllmzznpCI3s"
                        }
                    ],
                    "external_urls": {
                        "spotify": "https://open.spotify.com/album/5dGWwsZ9iB2Xc3UKR0gif2"
                    },
                    "href": "https://api.spotify.com/v1/albums/5dGWwsZ9iB2Xc3UKR0gif2",
                    "id": "5dGWwsZ9iB2Xc3UKR0gif2",
                    "images": [
                        {
                            "height": 640,
                            "url": "https://i.scdn.co/image/ab67616d0000b273e6f407c7f3a0ec98845e4431",
                            "width": 640
                        },
                        {
                            "height": 300,
                            "url": "https://i.scdn.co/image/ab67616d00001e02e6f407c7f3a0ec98845e4431",
                            "width": 300
                        },
                        {
                            "height": 64,
                            "url": "https://i.scdn.co/image/ab67616d00004851e6f407c7f3a0ec98845e4431",
                            "width": 64
                        }
                    ],
                    "name": "Justice",
                    "release_date": "2021-03-19",
                    "release_date_precision": "day",
                    "total_tracks": 16,
                    "type": "album",
                    "uri": "spotify:album:5dGWwsZ9iB2Xc3UKR0gif2"
                },
                "artists": [
                    {
                        "external_urls": {
                            "spotify": "https://open.spotify.com/artist/1uNFoZAHBGtllmzznpCI3s"
                        },
                        "href": "https://api.spotify.com/v1/artists/1uNFoZAHBGtllmzznpCI3s",
                        "id": "1uNFoZAHBGtllmzznpCI3s",
                        "name": "Justin Bieber",
                        "type": "artist",
                        "uri": "spotify:artist:1uNFoZAHBGtllmzznpCI3s"
                    },
                    {
                        "external_urls": {
                            "spotify": "https://open.spotify.com/artist/2tIP7SsRs7vjIcLrU85W8J"
                        },
                        "href": "https://api.spotify.com/v1/artists/2tIP7SsRs7vjIcLrU85W8J",
                        "id": "2tIP7SsRs7vjIcLrU85W8J",
                        "name": "The Kid LAROI",
                        "type": "artist",
                        "uri": "spotify:artist:2tIP7SsRs7vjIcLrU85W8J"
                    }
                ],
                "disc_number": 1,
                "duration_ms": 158324,
                "explicit": false,
                "external_ids": {
                    "isrc": "USUM72102130"
                },
                "external_urls": {
                    "spotify": "https://open.spotify.com/track/137mSruegm1u6x9NvwiagR"
                },
                "href": "https://api.spotify.com/v1/tracks/137mSruegm1u6x9NvwiagR",
                "id": "137mSruegm1u6x9NvwiagR",
                "is_local": false,
                "name": "Unstable (feat. The Kid LAROI)",
                "popularity": 76,
                "preview_url": null,
                "track_number": 6,
                "type": "track",
                "uri": "spotify:track:137mSruegm1u6x9NvwiagR"
            }
        },
        {
            "added_at": "2022-03-29T04:17:32Z",
            "track": {
                "album": {
                    "album_type": "single",
                    "artists": [
                        {
                            "external_urls": {
                                "spotify": "https://open.spotify.com/artist/5he5w2lnU9x7JFhnwcekXX"
                            },
                            "href": "https://api.spotify.com/v1/artists/5he5w2lnU9x7JFhnwcekXX",
                            "id": "5he5w2lnU9x7JFhnwcekXX",
                            "name": "Skrillex",
                            "type": "artist",
                            "uri": "spotify:artist:5he5w2lnU9x7JFhnwcekXX"
                        },
                        {
                            "external_urls": {
                                "spotify": "https://open.spotify.com/artist/1uNFoZAHBGtllmzznpCI3s"
                            },
                            "href": "https://api.spotify.com/v1/artists/1uNFoZAHBGtllmzznpCI3s",
                            "id": "1uNFoZAHBGtllmzznpCI3s",
                            "name": "Justin Bieber",
                            "type": "artist",
                            "uri": "spotify:artist:1uNFoZAHBGtllmzznpCI3s"
                        },
                        {
                            "external_urls": {
                                "spotify": "https://open.spotify.com/artist/4Gso3d4CscCijv0lmajZWs"
                            },
                            "href": "https://api.spotify.com/v1/artists/4Gso3d4CscCijv0lmajZWs",
                            "id": "4Gso3d4CscCijv0lmajZWs",
                            "name": "Don Toliver",
                            "type": "artist",
                            "uri": "spotify:artist:4Gso3d4CscCijv0lmajZWs"
                        }
                    ],
                    "external_urls": {
                        "spotify": "https://open.spotify.com/album/76HLs4wSTOuCNwcGl4dycr"
                    },
                    "href": "https://api.spotify.com/v1/albums/76HLs4wSTOuCNwcGl4dycr",
                    "id": "76HLs4wSTOuCNwcGl4dycr",
                    "images": [
                        {
                            "height": 640,
                            "url": "https://i.scdn.co/image/ab67616d0000b27331e53a199694be10fbe9abd3",
                            "width": 640
                        },
                        {
                            "height": 300,
                            "url": "https://i.scdn.co/image/ab67616d00001e0231e53a199694be10fbe9abd3",
                            "width": 300
                        },
                        {
                            "height": 64,
                            "url": "https://i.scdn.co/image/ab67616d0000485131e53a199694be10fbe9abd3",
                            "width": 64
                        }
                    ],
                    "name": "Don’t Go (with Justin Bieber & Don Toliver)",
                    "release_date": "2021-08-20",
                    "release_date_precision": "day",
                    "total_tracks": 1,
                    "type": "album",
                    "uri": "spotify:album:76HLs4wSTOuCNwcGl4dycr"
                },
                "artists": [
                    {
                        "external_urls": {
                            "spotify": "https://open.spotify.com/artist/5he5w2lnU9x7JFhnwcekXX"
                        },
                        "href": "https://api.spotify.com/v1/artists/5he5w2lnU9x7JFhnwcekXX",
                        "id": "5he5w2lnU9x7JFhnwcekXX",
                        "name": "Skrillex",
                        "type": "artist",
                        "uri": "spotify:artist:5he5w2lnU9x7JFhnwcekXX"
                    },
                    {
                        "external_urls": {
                            "spotify": "https://open.spotify.com/artist/1uNFoZAHBGtllmzznpCI3s"
                        },
                        "href": "https://api.spotify.com/v1/artists/1uNFoZAHBGtllmzznpCI3s",
                        "id": "1uNFoZAHBGtllmzznpCI3s",
                        "name": "Justin Bieber",
                        "type": "artist",
                        "uri": "spotify:artist:1uNFoZAHBGtllmzznpCI3s"
                    },
                    {
                        "external_urls": {
                            "spotify": "https://open.spotify.com/artist/4Gso3d4CscCijv0lmajZWs"
                        },
                        "href": "https://api.spotify.com/v1/artists/4Gso3d4CscCijv0lmajZWs",
                        "id": "4Gso3d4CscCijv0lmajZWs",
                        "name": "Don Toliver",
                        "type": "artist",
                        "uri": "spotify:artist:4Gso3d4CscCijv0lmajZWs"
                    }
                ],
                "disc_number": 1,
                "duration_ms": 168253,
                "explicit": false,
                "external_ids": {
                    "isrc": "USAT22101786"
                },
                "external_urls": {
                    "spotify": "https://open.spotify.com/track/55sgQENF3LY1sUcJUwasLl"
                },
                "href": "https://api.spotify.com/v1/tracks/55sgQENF3LY1sUcJUwasLl",
                "id": "55sgQENF3LY1sUcJUwasLl",
                "is_local": false,
                "name": "Don’t Go (with Justin Bieber & Don Toliver)",
                "popularity": 77,
                "preview_url": "https://p.scdn.co/mp3-preview/728e1969ea2263fad4d3b8824927ed99e2da3e09?cid=a0947f5c419d4f52b56dbce466137f20",
                "track_number": 1,
                "type": "track",
                "uri": "spotify:track:55sgQENF3LY1sUcJUwasLl"
            }
        },
        {
            "added_at": "2022-03-29T04:17:03Z",
            "track": {
                "album": {
                    "album_type": "album",
                    "artists": [
                        {
                            "id": "1uNFoZAHBGtllmzznpCI3s",
                            "name": "Justin Bieber"
                        }
                    ],
                    "id": "0wZJCeyfJ0LVrrtH4CwQYw",
                    "name": "Never Say Never - The Remixes"
                },
                "artists": [
                    {
                        "id": "1uNFoZAHBGtllmzznpCI3s",
                        "name": "Justin Bieber"
                    },
                    {
                        "id": "0xOeVMOz2fVg5BJY3N6akT",
                        "name": "Jaden"
                    }
                ],
                "duration_ms": 227853,
                "explicit": false,
                "id": "5GYbkDveRD2I8M5ZJ14hWn",
                "name": "Never Say Never",
                "popularity": 77
            }
        }
    ],
    "limit": 20,
    "next": "https://api.spotify.com/v1/me/tracks?offset=20&limit=20",
    "offset": 0,
    "previous": null,
    "total": 51
}